----------------------------Rager Baseball Bat-----------------------------------
done

----------------------Rager Baseball Bat (Nail Mod)------------------------
done

----------------------Rager Baseball Bat (Barbed Mod)----------------------
done

-----------------------Rager Baseball Bat (Axe Mod)------------------------
done

-----------------------Rager Baseball Bat (Heavy Mod)------------------------
done


