module AuthenticZBackpacks+ {
  imports {
      Base
  }

    item Bag_ALICEpack_UrbanCamo
    {
        DisplayCategory = Bag,
        Type = Container,
        DisplayName = Urban Camo Alice Pack,
        ClothingItem = Bag_ALICEpack_UrbanCamo,
        CanBeEquipped = Back,
        WeightReduction	=	87,
        Weight	=	2,
        Capacity	=	28,
        Icon	=	AliceBag_UrbanCamo,
        OpenSound   =   OpenBag,
        CloseSound   =   CloseBag,
        PutInSound   =   PutItemInBag,
        BloodLocation = Bag,
        RunSpeedModifier = 0.94,
        CanHaveHoles = false,
        AttachmentReplacement = Bag,
        ReplaceInSecondHand = Bag_ALICEpack_Army_LHand holdingbagleft,
        ReplaceInPrimaryHand = Bag_ALICEpack_Army_RHand holdingbagright,
        WorldStaticModel = ALICE_Pack_Ground,
    }

	item Bag_B4BEvangelo
    {
       DisplayCategory = Bag,	
        WeightReduction			 =	 65,
        Weight					 =	 1,
        Type					 =	 Container,
        Capacity				 =	 18,
        DisplayName				 =	 Evangelo's Backpack,
        Icon 					 =	 Backpack_Evangelo,
        CanBeEquipped 			 =	 Back,
        OpenSound   			 =   OpenBag,
        CloseSound   			 =   CloseBag,
        PutInSound  			 =   PutItemInBag,
        ClothingItem 			 = 	 Bag_B4BEvangelo,
        BloodLocation 			 =	 Bag,
        RunSpeedModifier 		 =	 0.97,
        AttachmentReplacement 	 =	 Bag,
        ReplaceInSecondHand 	 =	 Bag_B4BEvangelo_LHand holdingbagleft,
        ReplaceInPrimaryHand	 =	 Bag_B4BEvangelo_RHand holdingbagright,
		WorldStaticModel 		 =	 WorldItem_BackpackEvangelo,
    }  

	item Bag_B4BHoffman
    {
       DisplayCategory = Bag,	
        WeightReduction	=	65,
        Weight			=	1,
        Type			=	Container,
        Capacity		=	18,
        DisplayName		=	Hoffman's Backpack,
        Icon 			= 	Backpack_Hoffman,
        CanBeEquipped 	=	Back,
        OpenSound   	=   OpenBag,
        CloseSound   	=   CloseBag,
        PutInSound  	=   PutItemInBag,
        ClothingItem 			 = Bag_B4BHoffman,
        BloodLocation 			 = Bag,
        RunSpeedModifier 		 = 0.97,
        AttachmentReplacement 	 = Bag,
        ReplaceInSecondHand 	 = Bag_B4BHoffman_LHand holdingbagleft,
        ReplaceInPrimaryHand	 = Bag_B4BHoffman_RHand holdingbagright,
		WorldStaticModel 		 = WorldItem_BackpackHoffman,
    } 
 
	item Bag_B4BHolly
    {
       DisplayCategory = Bag,	
        WeightReduction			 =	70,
        Weight					 =	1,
        Type					 =	Container,
        Capacity				 =	20,
        DisplayName				 =	Holly's Backpack,
        Icon 					 = 	Backpack_Holly,
        CanBeEquipped 			 = 	Back,
        OpenSound   			 =  OpenBag,
        CloseSound   			 =  CloseBag,
        PutInSound  			 =  PutItemInBag,
        ClothingItem 			 = 	Bag_B4BHolly,
        BloodLocation 			 = 	Bag,
        RunSpeedModifier 		 = 	0.97,
        AttachmentReplacement 	 = 	Bag,
        ReplaceInSecondHand 	 = 	Bag_B4BHolly_LHand holdingbagleft,
        ReplaceInPrimaryHand	 = 	Bag_B4BHolly_RHand holdingbagright,
        WorldStaticModel 		 = 	WorldItem_BackpackHolly,
    }   

	item Bag_B4BMom
    {
       DisplayCategory = Bag,	
        WeightReduction	=	70,
        Weight			=	1,
        Type			=	Container,
        Capacity		=	18,
        DisplayName		=	Mom's Backpack,
        Icon 			= 	Backpack_Mom,
        CanBeEquipped 	= 	Back,
        OpenSound   	=   OpenBag,
        CloseSound   	=   CloseBag,
        PutInSound  	=   PutItemInBag,
        ClothingItem 			 = Bag_B4BMom,
        BloodLocation 			 = Bag,
        RunSpeedModifier 		 = 0.97,
        AttachmentReplacement 	 = Bag,
        ReplaceInSecondHand 	 = Bag_B4BMom_LHand holdingbagleft,
        ReplaceInPrimaryHand	 = Bag_B4BMom_RHand holdingbagright,
        WorldStaticModel 		 = WorldItem_BackpackMom,
    } 

	item Bag_B4BWalker
    {
       DisplayCategory = Bag,	
        WeightReduction	=	70,
        Weight			=	1,
        Type			=	Container,
        Capacity		=	20,
        DisplayName		=	Walker's Backpack,
        Icon 			= 	Backpack_Walker,
        CanBeEquipped 	= 	Back,
        OpenSound   	=   OpenBag,
        CloseSound   	=   CloseBag,
        PutInSound  	=   PutItemInBag,
        ClothingItem 			 = Bag_B4BWalker,
        BloodLocation 			 = Bag,
        RunSpeedModifier 		 = 0.97,
        AttachmentReplacement 	 = Bag,
        ReplaceInSecondHand 	 = Bag_B4BWalker_LHand holdingbagleft,
        ReplaceInPrimaryHand	 = Bag_B4BWalker_RHand holdingbagright,
        WorldStaticModel 		 = WorldItem_BackpackWalker,
    } 
 
	item Bag_SchoolBagCEDA
    {
       DisplayCategory = Bag,	
        WeightReduction	=	60,
        Weight	=	1,
        Type	=	Container,
        Capacity	=	15,
        DisplayName	=	CEDA Hazmat Pack,
        Icon = Backpack_Green,
        CanBeEquipped = Back,
        OpenSound   =   OpenBag,
        CloseSound   =   CloseBag,
        PutInSound   =   PutItemInBag,
        ClothingItem = Bag_SchoolBagCEDA,
        BloodLocation = Bag,
        RunSpeedModifier = 0.97,
        AttachmentReplacement = Bag,
        ReplaceInSecondHand = Bag_SchoolBagCEDA_LHand holdingbagleft,
        ReplaceInPrimaryHand = Bag_SchoolBagCEDA_RHand holdingbagright,
		WorldStaticModel = SchoolBag_Ground,
    }

	item Bag_SchoolBagCEDABlack
    {
       DisplayCategory = Bag,	
        WeightReduction			=	60,
        Weight					=	1,
        Type					=	Container,
        Capacity				=	15,
        DisplayName				=	CEDA Hazmat Pack,
        Icon 					= 	Backpack_Black,
        CanBeEquipped 			= 	Back,
        OpenSound   			=   OpenBag,
        CloseSound   			=   CloseBag,
        PutInSound   			=   PutItemInBag,
        ClothingItem 			= 	Bag_SchoolBagCEDABlack,
        BloodLocation 			= 	Bag,
        RunSpeedModifier 		= 	0.97,
        AttachmentReplacement   = 	Bag,
        ReplaceInSecondHand 	= 	Bag_SchoolBagCEDABlack_LHand holdingbagleft,
        ReplaceInPrimaryHand 	= 	Bag_SchoolBagCEDABlack_RHand holdingbagright,
		WorldStaticModel 		= 	SchoolBag_Ground,
    }
	item Bag_SchoolBagCEDABlue
    {
       DisplayCategory = Bag,	
        WeightReduction			=	60,
        Weight					=	1,
        Type					=	Container,
        Capacity				=	15,
        DisplayName				=	CEDA Hazmat Pack,
        Icon 					= 	Backpack_Blue,
        CanBeEquipped			= 	Back,
        OpenSound   			=   OpenBag,
        CloseSound   			=   CloseBag,
        PutInSound   			=   PutItemInBag,
        ClothingItem 			= 	Bag_SchoolBagCEDABlue,
        BloodLocation 			= 	Bag,
        RunSpeedModifier 		= 	0.97,
        AttachmentReplacement 	= 	Bag,
        ReplaceInSecondHand 	= 	Bag_SchoolBagCEDABlue_LHand holdingbagleft,
        ReplaceInPrimaryHand 	= 	Bag_SchoolBagCEDABlue_RHand holdingbagright,
		WorldStaticModel 		= 	SchoolBag_Ground,
    }
	item Bag_SchoolBagCEDARed
    {
       DisplayCategory = Bag,	
        WeightReduction				=	60,
        Weight						=	1,
        Type						=	Container,
        Capacity					=	15,
        DisplayName					=	CEDA Hazmat Pack,
        Icon 						= 	Backpack_Red,
        CanBeEquipped 				= 	Back,
        OpenSound   				=   OpenBag,
        CloseSound   				=   CloseBag,
        PutInSound   				=   PutItemInBag,
        ClothingItem 				= 	Bag_SchoolBagCEDARed,
        BloodLocation 				=	Bag,
        RunSpeedModifier 			= 	0.97,
        AttachmentReplacement 		= 	Bag,
        ReplaceInSecondHand 		= 	Bag_SchoolBagCEDARed_LHand holdingbagleft,
        ReplaceInPrimaryHand 		= 	Bag_SchoolBagCEDARed_RHand holdingbagright,
		WorldStaticModel 			= 	SchoolBag_Ground,
    }	
	
	item Bag_JerryCanBack
    {
        DisplayCategory = Bag,	
        Weight			=	6,
        Type			=	Drainable,
		UseWhileEquipped	=	FALSE,
		UseDelta		=	0.125,
        DisplayName		=	Jerrycan,
        Icon			= Petrol,
        CanBeEquipped		= Back,
        ClothingItem 		= Bag_JerryCanBack,
        BloodLocation 		= Bag,
        RunSpeedModifier 	= 0.80,
        AttachmentReplacement   = Bag,
        ReplaceInSecondHand     = Bag_JerryCanLeft holdingbagleft,
        ReplaceInPrimaryHand    = Bag_JerryCanRight holdingbagright,
    }

	item Bag_L4DeadMedkit
    {
        Type					 =	Container,	
        DisplayCategory 		 = 	Bag,
        DisplayName				 =	First Aid Kit,	
        ClothingItem 			 = 	Bag_L4DeadMedkit,		
        WeightReduction		     =	50,
        Weight					 =	1,
        Capacity				 =	5,
        Icon 					 = 	Backpack_L4DMedkit,
        CanBeEquipped 			 = 	Back,
        OpenSound   			 = 	OpenBag,
        CloseSound   			 = 	CloseBag,
        PutInSound  			 = 	PutItemInBag,
        Medical 				 = 	TRUE,		
        BloodLocation 			 = 	Bag,
        RunSpeedModifier 		 = 	0.97,
        AttachmentReplacement 	 = 	Bag,
        ReplaceInSecondHand 	 = 	Bag_L4DeadMedkit_LHand holdingbagleft,
        ReplaceInPrimaryHand	 = 	Bag_L4DeadMedkit_RHand holdingbagright,
        WorldStaticModel 		 = 	WorldItem_BackpackL4DMedkit,
		AttachmentType  		 = 	Bag_L4DeadMedkit,
		StaticModel 			= 	WorldItem_BackpackL4DMedkit,		
    } 

	item Bag_MilitaryWebbing_AZ
	{
		DisplayCategory 		= Bag,
		Type 					= Container,
		DisplayName 			= Tactical Webbing,
		ClothingItem 			= Bag_MilitaryWebbing_AZ,
		ClothingItemExtra 		= AuthenticZClothing.Bag_MilitaryWebbingTightened_AZ,
        ClothingItemExtraOption = Tighten,		
		BodyLocation 			= Tail,
		CanBeEquipped 			= Tail,
		Capacity 				= 5,
		WeightReduction			= 40,
		RunSpeedModifier 		= 1,
		IconsForTexture 		= MilitaryWebbing_ForestCamo;MilitaryWebbing_UrbanBlack,
		Tooltip 		 		= Tooltip_TacticalWebbing,
		AttachmentsProvided  	= AZWebbingLeft;AZWebbingRight,
		WorldStaticModel 		= WorldItem-MilitaryWebbing,		
	}

	item Bag_MilitaryWebbingTightened_AZ
	{
		DisplayCategory 		= Bag,
		Type 					= Container,
		DisplayName 			= Tactical Webbing (Tightened),
		ClothingItem		 	= Bag_MilitaryWebbingTightened_AZ,
		ClothingItemExtra 		= AuthenticZClothing.Bag_MilitaryWebbing_AZ,
        ClothingItemExtraOption = Loosen,		
		BodyLocation 			= Tail,
		CanBeEquipped 			= Tail,
		Capacity 				= 5,
		WeightReduction			= 40,
		RunSpeedModifier 		= 1,
		IconsForTexture 		= MilitaryWebbing_ForestCamo;MilitaryWebbing_UrbanBlack,
		Tooltip 				= Tooltip_TacticalWebbing,
		AttachmentsProvided  	= AZWebbingLeft;AZWebbingRight,
		WorldStaticModel 		= WorldItem-MilitaryWebbing,		
	}
	
	item Bag_SchoolBagNBH
    {
       DisplayCategory = Bag,	
        WeightReduction			 =	60,
        Weight					 =	1,
        Type					 =	Container,
        Capacity				 =	15,
        DisplayName				 =	NBH Hazmat Pack,
        Icon 					 = 	Backpack_Grey,
        CanBeEquipped 			 = 	Back,
        OpenSound   			 =  OpenBag,
        CloseSound  		 	 =  CloseBag,
        PutInSound   			 =  PutItemInBag,
        ClothingItem 			 =	Bag_SchoolBagNBH,
        BloodLocation 			 =	Bag,
        RunSpeedModifier 		 = 	0.97,
        AttachmentReplacement	 =	Bag,
        ReplaceInSecondHand 	 = 	Bag_SchoolBagNBH_LHand holdingbagleft,
        ReplaceInPrimaryHand 	 = 	Bag_SchoolBagNBH_RHand holdingbagright,
		WorldStaticModel 		 =	SchoolBag_Ground,
    }
	
	item Bag_ProtonPack_Back
    {
       DisplayCategory = Bag,	
		WeightReduction			=	35,
        Weight					=	5,
        Type					=	Container,
		Capacity				=	10,
		DisplayName				=	Proton Pack,
        Icon 					= 	ProtonPack,
        CanBeEquipped 			= 	Back,
        OpenSound   			=   OpenBag,
        CloseSound   			=   CloseBag,
        PutInSound   			=   PutItemInBag,
        ClothingItem 			= 	Bag_ProtonPack_Back,
        BloodLocation 			= 	Bag,
        RunSpeedModifier		= 	0.80,
        AttachmentReplacement   = 	Bag,
        ReplaceInSecondHand 	= 	Bag_ProtonPack_LHand holdingbagleft,
        ReplaceInPrimaryHand	= 	Bag_ProtonPack_RHand holdingbagright,
		WorldStaticModel 		= 	WorldItem_ProtonPack,
    }

    item Bag_UtilityBeltFront
    {
       DisplayCategory = Bag,	
        Type					=	Container,
        DisplayName				=	Utility Belt (Tightened),
        ClothingItem 			= 	Bag_UtilityBeltFront,		
        WeightReduction			=	66,
        ClothingItemExtra 		=	AuthenticZClothing.Bag_UtilityBeltFront_Loose,
        ClothingItemExtraOption = 	Loosen,
        Weight					=	0.2,
        Capacity				=	2,
        Icon					=	UtilityBelt,
        OpenSound   			=   OpenBag,
        CloseSound   			=   CloseBag,
        PutInSound   			=   PutItemInBag,
        BodyLocation 			= 	Tail,
        CanBeEquipped 			= 	Tail,
        RunSpeedModifier 		= 	0.98,
        WorldStaticModel 		= 	WorldItem_UtilityBelt,
    }
	
    item Bag_UtilityBeltFront_Loose
    {
		DisplayCategory 		= 	Bag,	
        Type					=	Container,
        DisplayName				=	Utility Belt (Loosened),
        ClothingItem 			= 	Bag_UtilityBeltFront_Loose,		
        WeightReduction			=	66,
        ClothingItemExtra 		=	AuthenticZClothing.Bag_UtilityBeltFront,
        ClothingItemExtraOption = 	Tighten,
        Weight					=	0.2,
        Capacity				=	2,
        Icon					=	UtilityBelt,
        OpenSound   			=   OpenBag,
        CloseSound   			=   CloseBag,
        PutInSound   			=   PutItemInBag,
        BodyLocation 			= 	Tail,
        CanBeEquipped 			= 	Tail,
        RunSpeedModifier 		= 	0.98,
        WorldStaticModel 		= 	WorldItem_UtilityBelt,
    }	

    item Bag_UtilityBeltDesert
    {
       DisplayCategory = Bag,	
        Type					=	Container,
        DisplayName				=	Utility Belt (Tightened),
        ClothingItem 			= 	Bag_UtilityBeltDesert,		
        WeightReduction			=	66,
        ClothingItemExtra 		=	AuthenticZClothing.Bag_UtilityBeltDesert_Loose,
        ClothingItemExtraOption = 	Loosen,
        Weight					=	0.2,
        Capacity				=	2,
        Icon					=	UtilityBeltDesert,
        OpenSound   			=   OpenBag,
        CloseSound   			=   CloseBag,
        PutInSound   			=   PutItemInBag,
        BodyLocation 			= 	Tail,
        CanBeEquipped 			= 	Tail,
        RunSpeedModifier 		= 	0.98,
        WorldStaticModel 		= 	WorldItem_UtilityBelt,
    }
	
    item Bag_UtilityBeltDesert_Loose
    {
       DisplayCategory = Bag,	
        Type					=	Container,
        DisplayName				=	Utility Belt (Loosened),
        ClothingItem 			= 	Bag_UtilityBeltDesert_Loose,		
        WeightReduction			=	66,
        ClothingItemExtra 		=	AuthenticZClothing.Bag_UtilityBeltDesert,
        ClothingItemExtraOption = 	Tighten,
        Weight					=	0.2,
        Capacity				=	2,
        Icon					=	UtilityBeltDesert,
        OpenSound   			=   OpenBag,
        CloseSound   			=   CloseBag,
        PutInSound   			=   PutItemInBag,
        BodyLocation 			= 	Tail,
        CanBeEquipped 			= 	Tail,
        RunSpeedModifier 		= 	0.98,
        WorldStaticModel 		= 	WorldItem_UtilityBelt,
    }

    item Bag_Satchel
    {
        DisplayCategory = Bag,	
        WeightReduction	=	30,
        Weight	=	1,
        Type	=	Container,
        Capacity	=	15,
        DisplayName	=	Satchel,
        IconsForTexture = Satchel_Leather;Satchel_Green;Satchel_Khaki,
        CanBeEquipped = AmmoStrap,
        OpenSound   =   OpenBag,
        CloseSound   =   CloseBag,
        PutInSound   =   PutItemInBag,
        ClothingItem = Bag_SatchelAZ,
        BloodLocation = Bag,
        RunSpeedModifier = 0.99,
        ReplaceInSecondHand = Bag_Satchel_LHand holdingbagleft,
        ReplaceInPrimaryHand = Bag_Satchel_RHand holdingbagright,
        WorldStaticModel = Satchel_Ground,
    }	
	
	item Suitcase2
    {
	    DisplayCategory = Container,	
        WeightReduction	=	60,
        Weight	=	1,
        Type	=	Container,
        Capacity	=	15,
        DisplayName	=	Suitcase,
        Icon = Suitcase,
		CanBeEquipped = Back,
        OpenSound   =   OpenBag,
        CloseSound   =   CloseBag,
        PutInSound   =   PutItemInBag,
        ClothingItem = Bag_Suitecase_RightHand,
        BloodLocation = Bag,
        RunSpeedModifier = 0.97,
        AttachmentReplacement = Bag,
        ReplaceInSecondHand = Bag_Suitcase_LHand holdingbagleft,
        ReplaceInPrimaryHand = Bag_Suitcase_RHand holdingbagright,
		WorldStaticModel = Suitcase_Ground,
    }
	
}